digraph G {

node [shape=box, fontname=arial fontsize=12 color=gold style=filled]
graph [ranksep=0.4 nodesep=0.4]

  { rank=same
    origin [group=b]
    credibility [group=a]
    scrutiny [group=a]
    reproducibility
  }
  { rank=same
    record [group=b]
    provenance [group=a shape=ellipse color=skyblue]
    transparency [group=c]
  }
  { rank=same
    reliability [group=b shape=ellipse, color=skyblue]
    trustability [group=a height=1 shape=octagon color=darkgreen
    fontsize=16 fontcolor=gold]
    integrity [group=a shape=ellipse color=skyblue]
    constructability [group=a]
  }
  { rank=same
    compliance [group=b]
    functionality [group=a shape=ellipse, color=skyblue]
    durability [group=c shape=ellipse, color=skyblue]
    updatability [group=c]
  }
  { rank=same
    safety [group=a]
    security [group=a]
  }
  { rank=same
    verifiability [group=a]
    testability [group=c]
  }

  subgraph cluster_key { bgcolor="lightgrey"
  {
  rank=same
  Key [label="Key :"color="none" fontsize=14 width=0]
  rfactor [label="related\n factor" fontsize=10 height=0.3]
  sfactor [label="supporting\n factor" fontsize=10 height=0.3]
  aspect [shape=ellipse, color=skyblue fontsize=10]
  paspect [label="related\n aspect" shape=ellipse, color=skyblue fontsize=8]
  }
}

origin -> provenance
origin -> credibility [dir=back style="dashed"]
origin -> record [dir=back style="dashed"]
credibility -> provenance
credibility -> scrutiny [dir=back style="dashed"]
scrutiny -> integrity
record -> provenance
provenance -> transparency [dir=back]
record -> reliability
transparency -> constructability [style="dashed"]
transparency -> testability [style="dashed"]
transparency -> reproducibility [style="dashed"]
scrutiny -> transparency [style="dashed"]
transparency -> integrity
constructability -> reproducibility [style="dashed"]
reproducibility -> integrity
provenance -> trustability
reliability -> trustability
reliability-> functionality [dir=back style="dashed"]
trustability -> integrity [dir=back]
integrity -> constructability [dir=back]
constructability -> updatability  [style="dashed"]
functionality -> trustability
functionality -> durability [style="dashed"]
compliance -> functionality
compliance -> reliability
durability -> updatability [dir=back]
durability -> trustability
compliance -> safety [style="dashed"]
compliance -> security [style="dashed"]
safety -> functionality
safety -> verifiability [style="dashed"]
security -> functionality
security -> verifiability [style="dashed"]

verifiability -> functionality
verifiability -> durability
verifiability -> testability [style="dashed"]
testability -> durability
testability -> integrity
testability -> functionality

Key ->rfactor [style="invis"]
testability -> aspect [style="invis"]
rfactor -> sfactor [style="dashed"]
sfactor -> aspect
aspect -> paspect [dir="back" style="dashed"]
}
