<?xml version="1.0" encoding="UTF-8"?><svg xmlns="http://www.w3.org/2000/svg" xmlns:xlink="http://www.w3.org/1999/xlink" fill-opacity="1" color-rendering="auto" color-interpolation="auto" text-rendering="auto" stroke="black" stroke-linecap="square" width="525" stroke-miterlimit="10" shape-rendering="auto" stroke-opacity="1" fill="black" stroke-dasharray="none" font-weight="normal" stroke-width="1" height="311" font-family="'Dialog'" font-style="normal" stroke-linejoin="miter" font-size="12px" stroke-dashoffset="0" image-rendering="auto">
  <!--Generated by ySVG 2.5-->
  <defs id="genericDefs"/>
  <g>
    <defs id="defs1">
      <clipPath clipPathUnits="userSpaceOnUse" id="clipPath1">
        <path d="M0 0 L525 0 L525 311 L0 311 L0 0 Z"/>
      </clipPath>
      <clipPath clipPathUnits="userSpaceOnUse" id="clipPath2">
        <path d="M607 238 L1132 238 L1132 549 L607 549 L607 238 Z"/>
      </clipPath>
    </defs>
    <g fill="white" text-rendering="geometricPrecision" shape-rendering="geometricPrecision" transform="translate(-607,-238)" stroke="white">
      <rect x="607" width="525" height="311" y="238" clip-path="url(#clipPath2)" stroke="none"/>
    </g>
    <g stroke-linecap="butt" transform="matrix(1,0,0,1,-607,-238)" fill="rgb(153,153,153)" text-rendering="geometricPrecision" shape-rendering="geometricPrecision" stroke="rgb(153,153,153)" stroke-width="2" stroke-miterlimit="1.45">
      <rect x="966.0729" y="263.5" clip-path="url(#clipPath2)" fill="none" width="160" rx="4" ry="4" height="250"/>
    </g>
    <g stroke-linecap="butt" font-size="14px" transform="matrix(1,0,0,1,-607,-238)" text-rendering="geometricPrecision" font-family="'Open Sans'" shape-rendering="geometricPrecision" font-style="italic" font-weight="bold" stroke-miterlimit="1.45">
      <text x="972.0729" xml:space="preserve" y="284.4639" clip-path="url(#clipPath2)" stroke="none">Key</text>
    </g>
    <g fill="rgb(153,204,255)" text-rendering="geometricPrecision" shape-rendering="geometricPrecision" transform="matrix(1,0,0,1,-607,-238)" stroke="rgb(153,204,255)">
      <path d="M612 417 L692 417 L692 457 L612 457 Z" stroke="none" clip-path="url(#clipPath2)"/>
    </g>
    <g text-rendering="geometricPrecision" stroke-miterlimit="1.45" shape-rendering="geometricPrecision" transform="matrix(1,0,0,1,-607,-238)" stroke-linecap="butt">
      <path fill="none" d="M612 417 L692 417 L692 457 L612 457 Z" clip-path="url(#clipPath2)"/>
      <text x="632.3184" xml:space="preserve" y="441.6553" clip-path="url(#clipPath2)" font-family="'Open Sans'" stroke="none">Record</text>
    </g>
    <g fill="rgb(255,153,0)" text-rendering="geometricPrecision" shape-rendering="geometricPrecision" transform="matrix(1,0,0,1,-607,-238)" stroke="rgb(255,153,0)">
      <path d="M675.7938 504 L765.5938 504 L755.3937 544 L665.5938 544 Z" stroke="none" clip-path="url(#clipPath2)"/>
    </g>
    <g text-rendering="geometricPrecision" stroke-miterlimit="1.45" shape-rendering="geometricPrecision" transform="matrix(1,0,0,1,-607,-238)" stroke-linecap="butt">
      <path fill="none" d="M675.7938 504 L765.5938 504 L755.3937 544 L665.5938 544 Z" clip-path="url(#clipPath2)"/>
      <text x="685.9893" xml:space="preserve" y="528.6553" clip-path="url(#clipPath2)" font-family="'Open Sans'" stroke="none">t.response</text>
    </g>
    <g fill="rgb(255,153,0)" text-rendering="geometricPrecision" shape-rendering="geometricPrecision" transform="matrix(1,0,0,1,-607,-238)" stroke="rgb(255,153,0)">
      <path d="M675.7938 330 L765.5938 330 L755.3937 370 L665.5938 370 Z" stroke="none" clip-path="url(#clipPath2)"/>
    </g>
    <g text-rendering="geometricPrecision" stroke-miterlimit="1.45" shape-rendering="geometricPrecision" transform="matrix(1,0,0,1,-607,-238)" stroke-linecap="butt">
      <path fill="none" d="M675.7938 330 L765.5938 330 L755.3937 370 L665.5938 370 Z" clip-path="url(#clipPath2)"/>
      <text x="687.1113" xml:space="preserve" y="354.6553" clip-path="url(#clipPath2)" font-family="'Open Sans'" stroke="none">t.proposal</text>
    </g>
    <g fill="rgb(255,153,0)" text-rendering="geometricPrecision" shape-rendering="geometricPrecision" transform="matrix(1,0,0,1,-607,-238)" stroke="rgb(255,153,0)">
      <path d="M802.6297 330 L892.4297 330 L882.2297 370 L792.4297 370 Z" stroke="none" clip-path="url(#clipPath2)"/>
    </g>
    <g text-rendering="geometricPrecision" stroke-miterlimit="1.45" shape-rendering="geometricPrecision" transform="matrix(1,0,0,1,-607,-238)" stroke-linecap="butt">
      <path fill="none" d="M802.6297 330 L892.4297 330 L882.2297 370 L792.4297 370 Z" clip-path="url(#clipPath2)"/>
      <text x="819.4375" xml:space="preserve" y="354.6553" clip-path="url(#clipPath2)" font-family="'Open Sans'" stroke="none">t.history</text>
    </g>
    <g fill="rgb(153,204,255)" text-rendering="geometricPrecision" shape-rendering="geometricPrecision" transform="matrix(1,0,0,1,-607,-238)" stroke="rgb(153,204,255)">
      <path d="M612 243 L692 243 L692 283 L612 283 Z" stroke="none" clip-path="url(#clipPath2)"/>
    </g>
    <g text-rendering="geometricPrecision" stroke-miterlimit="1.45" shape-rendering="geometricPrecision" transform="matrix(1,0,0,1,-607,-238)" stroke-linecap="butt">
      <path fill="none" d="M612 243 L692 243 L692 283 L612 283 Z" clip-path="url(#clipPath2)"/>
      <text x="632.1309" xml:space="preserve" y="267.6553" clip-path="url(#clipPath2)" font-family="'Open Sans'" stroke="none">Submit</text>
    </g>
    <g fill="rgb(153,204,255)" text-rendering="geometricPrecision" shape-rendering="geometricPrecision" transform="matrix(1,0,0,1,-607,-238)" stroke="rgb(153,204,255)">
      <path d="M739.1875 417 L819.1875 417 L819.1875 457 L739.1875 457 Z" stroke="none" clip-path="url(#clipPath2)"/>
    </g>
    <g text-rendering="geometricPrecision" stroke-miterlimit="1.45" shape-rendering="geometricPrecision" transform="matrix(1,0,0,1,-607,-238)" stroke-linecap="butt">
      <path fill="none" d="M739.1875 417 L819.1875 417 L819.1875 457 L739.1875 457 Z" clip-path="url(#clipPath2)"/>
      <text x="755.4863" xml:space="preserve" y="441.6553" clip-path="url(#clipPath2)" font-family="'Open Sans'" stroke="none">Evaluate</text>
    </g>
    <g fill="rgb(255,153,0)" text-rendering="geometricPrecision" shape-rendering="geometricPrecision" transform="matrix(1,0,0,1,-607,-238)" stroke="rgb(255,153,0)">
      <path d="M802.6297 504 L892.4297 504 L882.2297 544 L792.4297 544 Z" stroke="none" clip-path="url(#clipPath2)"/>
    </g>
    <g text-rendering="geometricPrecision" stroke-miterlimit="1.45" shape-rendering="geometricPrecision" transform="matrix(1,0,0,1,-607,-238)" stroke-linecap="butt">
      <path fill="none" d="M802.6297 504 L892.4297 504 L882.2297 544 L792.4297 544 Z" clip-path="url(#clipPath2)"/>
      <text x="818.3828" xml:space="preserve" y="528.6553" clip-path="url(#clipPath2)" font-family="'Open Sans'" stroke="none">t.marker</text>
    </g>
    <g fill="rgb(153,204,255)" text-rendering="geometricPrecision" shape-rendering="geometricPrecision" transform="matrix(1,0,0,1,-607,-238)" stroke="rgb(153,204,255)">
      <path d="M866.375 417 L946.375 417 L946.375 457 L866.375 457 Z" stroke="none" clip-path="url(#clipPath2)"/>
    </g>
    <g text-rendering="geometricPrecision" stroke-miterlimit="1.45" shape-rendering="geometricPrecision" transform="matrix(1,0,0,1,-607,-238)" stroke-linecap="butt">
      <path fill="none" d="M866.375 417 L946.375 417 L946.375 457 L866.375 457 Z" clip-path="url(#clipPath2)"/>
      <text x="888.9199" xml:space="preserve" y="441.6553" clip-path="url(#clipPath2)" font-family="'Open Sans'" stroke="none">Assert</text>
    </g>
    <g fill="rgb(153,204,255)" text-rendering="geometricPrecision" shape-rendering="geometricPrecision" transform="matrix(1,0,0,1,-607,-238)" stroke="rgb(153,204,255)">
      <path d="M866.375 243 L946.375 243 L946.375 283 L866.375 283 Z" stroke="none" clip-path="url(#clipPath2)"/>
    </g>
    <g text-rendering="geometricPrecision" stroke-miterlimit="1.45" shape-rendering="geometricPrecision" transform="matrix(1,0,0,1,-607,-238)" stroke-linecap="butt">
      <path fill="none" d="M866.375 243 L946.375 243 L946.375 283 L866.375 283 Z" clip-path="url(#clipPath2)"/>
      <text x="879.791" xml:space="preserve" y="267.6553" clip-path="url(#clipPath2)" font-family="'Open Sans'" stroke="none">Consume</text>
    </g>
    <g fill="rgb(153,204,255)" text-rendering="geometricPrecision" shape-rendering="geometricPrecision" transform="matrix(1,0,0,1,-607,-238)" stroke="rgb(153,204,255)">
      <path d="M1006.0729 410.5 L1086.0729 410.5 L1086.0729 450.5 L1006.0729 450.5 Z" stroke="none" clip-path="url(#clipPath2)"/>
    </g>
    <g text-rendering="geometricPrecision" stroke-miterlimit="1.45" shape-rendering="geometricPrecision" transform="matrix(1,0,0,1,-607,-238)" stroke-linecap="butt">
      <path fill="none" d="M1006.0729 410.5 L1086.0729 410.5 L1086.0729 450.5 L1006.0729 450.5 Z" clip-path="url(#clipPath2)"/>
      <text x="1028.4772" xml:space="preserve" y="435.1553" clip-path="url(#clipPath2)" font-family="'Open Sans'" stroke="none">Action</text>
    </g>
    <g fill="rgb(255,153,0)" text-rendering="geometricPrecision" shape-rendering="geometricPrecision" transform="matrix(1,0,0,1,-607,-238)" stroke="rgb(255,153,0)">
      <path d="M1006.2729 315.5 L1096.0729 315.5 L1085.8729 355.5 L996.0729 355.5 Z" stroke="none" clip-path="url(#clipPath2)"/>
    </g>
    <g text-rendering="geometricPrecision" stroke-miterlimit="1.45" shape-rendering="geometricPrecision" transform="matrix(1,0,0,1,-607,-238)" stroke-linecap="butt">
      <path fill="none" d="M1006.2729 315.5 L1096.0729 315.5 L1085.8729 355.5 L996.0729 355.5 Z" clip-path="url(#clipPath2)"/>
      <text x="1023.1042" xml:space="preserve" y="340.1553" clip-path="url(#clipPath2)" font-family="'Open Sans'" stroke="none">Element</text>
    </g>
    <g fill="rgb(255,153,0)" text-rendering="geometricPrecision" shape-rendering="geometricPrecision" transform="matrix(1,0,0,1,-607,-238)" stroke="rgb(255,153,0)">
      <path d="M739.3875 243 L829.1875 243 L818.9875 283 L729.1875 283 Z" stroke="none" clip-path="url(#clipPath2)"/>
    </g>
    <g text-rendering="geometricPrecision" stroke-miterlimit="1.45" shape-rendering="geometricPrecision" transform="matrix(1,0,0,1,-607,-238)" stroke-linecap="butt">
      <path fill="none" d="M739.3875 243 L829.1875 243 L818.9875 283 L729.1875 283 Z" clip-path="url(#clipPath2)"/>
      <text x="755.7061" xml:space="preserve" y="267.6553" clip-path="url(#clipPath2)" font-family="'Open Sans'" stroke="none">t.artifact</text>
    </g>
    <g text-rendering="geometricPrecision" stroke-miterlimit="1.45" shape-rendering="geometricPrecision" transform="matrix(1,0,0,1,-607,-238)" stroke-linecap="butt">
      <path fill="none" d="M666.6098 456.9871 L696.2589 497.5488" clip-path="url(#clipPath2)"/>
      <path d="M700.9799 504.0074 L697.9351 491.369 L695.6688 496.7415 L689.8619 497.2701 Z" clip-path="url(#clipPath2)" stroke="none"/>
      <path fill="none" stroke-dasharray="6,2" d="M715.5938 503.9917 L715.5938 377.9633" clip-path="url(#clipPath2)" stroke="blue"/>
      <path fill="blue" stroke-dasharray="6,2" d="M715.5938 369.9633 L710.5938 381.9633 L715.5938 378.9633 L720.5938 381.9633 Z" clip-path="url(#clipPath2)" stroke="none"/>
      <path fill="none" d="M700.9839 369.9871 L671.3348 410.5488" clip-path="url(#clipPath2)"/>
      <path d="M666.6139 417.0074 L677.7319 410.2701 L671.9249 409.7415 L669.6587 404.369 Z" clip-path="url(#clipPath2)" stroke="none"/>
      <path fill="none" stroke-dasharray="6,2" d="M760.4632 350 L789.5643 350" clip-path="url(#clipPath2)" stroke="blue"/>
      <path fill="blue" stroke-dasharray="6,2" d="M797.5643 350 L785.5643 345 L788.5643 350 L785.5643 355 Z" clip-path="url(#clipPath2)" stroke="none"/>
      <path fill="none" d="M666.6098 282.9871 L696.2589 323.5488" clip-path="url(#clipPath2)"/>
      <path d="M700.9799 330.0074 L697.9351 317.369 L695.6688 322.7415 L689.8619 323.2701 Z" clip-path="url(#clipPath2)" stroke="none"/>
      <path fill="none" d="M730.2036 369.9871 L759.8527 410.5488" clip-path="url(#clipPath2)"/>
      <path d="M764.5736 417.0074 L761.5288 404.369 L759.2626 409.7415 L753.4556 410.2701 Z" clip-path="url(#clipPath2)" stroke="none"/>
    </g>
    <g stroke-linecap="round" transform="matrix(1,0,0,1,-607,-238)" stroke-dashoffset="2" text-rendering="geometricPrecision" shape-rendering="geometricPrecision" stroke-dasharray="0,8" stroke-width="2" stroke-miterlimit="1.45">
      <path fill="none" d="M730.2036 504.0129 L759.2626 464.2585" clip-path="url(#clipPath2)"/>
      <path d="M764.5736 456.9926 L752.0659 464.572 L758.5987 465.1667 L761.1482 471.2108 Z" clip-path="url(#clipPath2)" stroke="none"/>
      <path fill="none" d="M793.7166 417.0129 L822.6047 377.2725" clip-path="url(#clipPath2)"/>
      <path d="M827.8966 369.9926 L815.4089 377.6049 L821.9432 378.1824 L824.5087 384.2198 Z" clip-path="url(#clipPath2)" stroke="none"/>
    </g>
    <g stroke-linecap="butt" transform="matrix(1,0,0,1,-607,-238)" fill="blue" text-rendering="geometricPrecision" shape-rendering="geometricPrecision" stroke-dasharray="6,2" stroke="blue" stroke-miterlimit="1.45">
      <path fill="none" d="M842.4297 503.9917 L842.4297 377.9633" clip-path="url(#clipPath2)"/>
      <path d="M842.4297 369.9633 L837.4297 381.9633 L842.4297 378.9633 L847.4297 381.9633 Z" clip-path="url(#clipPath2)" stroke="none"/>
      <path fill="none" stroke-dasharray="none" d="M857.1202 369.9871 L886.9424 410.5613" clip-path="url(#clipPath2)" stroke="black"/>
      <path fill="black" stroke-dasharray="none" d="M891.6804 417.0074 L888.6023 404.377 L886.3502 409.7555 L880.5447 410.2994 Z" clip-path="url(#clipPath2)" stroke="none"/>
      <path fill="none" stroke-dasharray="none" d="M891.6844 456.9871 L861.8622 497.5613" clip-path="url(#clipPath2)" stroke="black"/>
      <path fill="black" stroke-dasharray="none" d="M857.1243 504.0074 L868.26 497.2994 L862.4545 496.7555 L860.2024 491.377 Z" clip-path="url(#clipPath2)" stroke="none"/>
      <path fill="none" stroke-dasharray="none" d="M857.1202 330.0129 L886.9424 289.4387" clip-path="url(#clipPath2)" stroke="black"/>
      <path fill="black" stroke-dasharray="none" d="M891.6804 282.9926 L880.5447 289.7006 L886.3502 290.2445 L888.6023 295.623 Z" clip-path="url(#clipPath2)" stroke="none"/>
      <path fill="none" stroke-dasharray="none" d="M1063.1193 410.5107 L1063.1193 363.5078" clip-path="url(#clipPath2)" stroke="black"/>
      <path fill="black" stroke-dasharray="none" d="M1063.1193 355.5078 L1058.1193 367.5078 L1063.1193 364.5078 L1068.1193 367.5078 Z" clip-path="url(#clipPath2)" stroke="none"/>
    </g>
    <g font-size="10px" stroke-linecap="butt" transform="matrix(1,0,0,1,-607,-238)" text-rendering="geometricPrecision" font-family="'Open Sans'" shape-rendering="geometricPrecision" stroke-miterlimit="1.45">
      <text x="1067.1193" xml:space="preserve" y="381.8271" clip-path="url(#clipPath2)" stroke="none">expected</text>
      <text x="1072.6759" xml:space="preserve" y="395.4453" clip-path="url(#clipPath2)" stroke="none">output</text>
    </g>
    <g stroke-linecap="butt" transform="matrix(1,0,0,1,-607,-238)" fill="blue" text-rendering="geometricPrecision" shape-rendering="geometricPrecision" stroke-dasharray="6,2" stroke="blue" stroke-miterlimit="1.45">
      <path fill="none" d="M1075.0115 315.5431 L1075.6792 313.7185 L1076.4431 310.7476 L1076.9128 307.6696 L1077.0729 304.5 L1076.9128 301.3304 L1076.4431 298.2524 L1075.6792 295.2816 L1074.6368 292.4334 L1071.7787 287.1676 L1067.9933 282.5797 L1063.4054 278.7943 L1058.1395 275.9361 L1055.2914 274.8937 L1052.3206 274.1298 L1049.2426 273.6601 L1046.073 273.5 L1042.9034 273.66 L1039.8253 274.1298 L1036.8545 274.8937 L1034.0063 275.9361 L1028.7406 278.7943 L1024.1526 282.5797 L1020.3672 287.1676 L1017.5091 292.4334 L1016.4666 295.2815 L1015.7028 298.2524 L1015.233 301.3304 L1015.0729 304.5 L1015.233 307.6696 L1015.2481 307.7686 L1015.2767 307.8644" clip-path="url(#clipPath2)"/>
      <path d="M1017.1579 315.6401 L1019.196 302.8009 L1015.0416 306.8925 L1009.4764 305.1523 Z" clip-path="url(#clipPath2)" stroke="none"/>
    </g>
    <g font-size="10px" stroke-linecap="butt" transform="matrix(1,0,0,1,-607,-238)" text-rendering="geometricPrecision" font-family="'Open Sans'" shape-rendering="geometricPrecision" stroke-miterlimit="1.45">
      <text x="1028.938" xml:space="preserve" y="299.5703" clip-path="url(#clipPath2)" stroke="none">relates</text>
      <text x="1040" xml:space="preserve" y="313.1885" clip-path="url(#clipPath2)" stroke="none">to</text>
    </g>
    <g stroke-linecap="round" transform="matrix(1,0,0,1,-607,-238)" stroke-dashoffset="2" text-rendering="geometricPrecision" shape-rendering="geometricPrecision" stroke-dasharray="0,8" stroke-width="2" stroke-miterlimit="1.45">
      <path fill="none" d="M1033.4902 410.4835 L1033.4902 364.4878" clip-path="url(#clipPath2)"/>
      <path d="M1033.4902 355.4878 L1027.8652 368.9878 L1033.4902 365.6128 L1039.1152 368.9878 Z" clip-path="url(#clipPath2)" stroke="none"/>
    </g>
    <g font-size="10px" stroke-linecap="butt" transform="matrix(1,0,0,1,-607,-238)" text-rendering="geometricPrecision" font-family="'Open Sans'" shape-rendering="geometricPrecision" stroke-miterlimit="1.45">
      <text x="990.9844" xml:space="preserve" y="381.8271" clip-path="url(#clipPath2)" stroke="none">possible</text>
      <text x="994.4854" xml:space="preserve" y="395.4453" clip-path="url(#clipPath2)" stroke="none">output</text>
      <path fill="none" d="M1064.3073 503.4819 L1064.3073 458.5024" clip-path="url(#clipPath2)"/>
      <path d="M1064.3073 450.5024 L1059.3073 462.5024 L1064.3073 459.5024 L1069.3073 462.5024 Z" stroke="none" clip-path="url(#clipPath2)"/>
      <text x="1068.3073" xml:space="preserve" y="474.8271" clip-path="url(#clipPath2)" stroke="none">required</text>
      <text x="1074.9308" xml:space="preserve" y="488.4453" clip-path="url(#clipPath2)" stroke="none"> input</text>
    </g>
    <g stroke-linecap="round" transform="matrix(1,0,0,1,-607,-238)" stroke-dashoffset="2" text-rendering="geometricPrecision" shape-rendering="geometricPrecision" stroke-dasharray="0,8" stroke-width="2" stroke-miterlimit="1.45">
      <path fill="none" d="M1033.712 503.4976 L1033.712 459.5234" clip-path="url(#clipPath2)"/>
      <path d="M1033.712 450.5234 L1028.087 464.0234 L1033.712 460.6484 L1039.337 464.0234 Z" clip-path="url(#clipPath2)" stroke="none"/>
    </g>
    <g font-size="10px" stroke-linecap="butt" transform="matrix(1,0,0,1,-607,-238)" text-rendering="geometricPrecision" font-family="'Open Sans'" shape-rendering="geometricPrecision" stroke-miterlimit="1.45">
      <text x="991.2062" xml:space="preserve" y="474.8271" clip-path="url(#clipPath2)" stroke="none">possible</text>
      <text x="998.2277" xml:space="preserve" y="488.4453" clip-path="url(#clipPath2)" stroke="none">input</text>
    </g>
    <g stroke-linecap="butt" transform="matrix(1,0,0,1,-607,-238)" fill="blue" text-rendering="geometricPrecision" shape-rendering="geometricPrecision" stroke-dasharray="6,2" stroke="blue" stroke-miterlimit="1.45">
      <path fill="none" d="M793.7166 282.9871 L823.1927 323.5364" clip-path="url(#clipPath2)"/>
      <path d="M827.8966 330.0074 L824.8852 317.361 L822.6047 322.7275 L816.7964 323.2408 Z" clip-path="url(#clipPath2)" stroke="none"/>
      <path fill="none" d="M764.5777 282.9871 L734.9286 323.5488" clip-path="url(#clipPath2)"/>
      <path d="M730.2076 330.0074 L741.3256 323.2701 L735.5187 322.7415 L733.2524 317.369 Z" clip-path="url(#clipPath2)" stroke="none"/>
    </g>
  </g>
</svg>
